Sale_name,Agreement,Region_contact,Date_prepared,Auction_date,Expire_date,water_problem,Temperature,TEMP,TMDL,SED,Legal_description,Applications,WAU_desc,Slope,Soils,Road_miles,Plants,Animals
NATAPOC,,"<w:r><w:t xml:space=""preserve"">Southeast Region </w:t><w:br/><w:t xml:space=""preserve"">	713 Bowers Road </w:t><w:br/><w:t xml:space=""preserve"">	Ellensburg, WA 98926  </w:t><w:br/><w:t xml:space=""preserve"">	(509) 925-8510</w:t></w:r>",10/11/2018,01/01/2035,12/31/2036,True,,False,True,False,T26-0N R17-0E,"{u'LOWER NASON': {'Acres': 24434.5, 'DNR_Even': 0.0, 'DNR_Uneven': 0.0, 'DNR_Acres': 482.1, 'Non_DNR': 511.4}}","{u'LOWER NASON': {'Elev_Min': 1863, 'Acres': 24435, 'Mean_Precip': 50, 'Veg_Zone': u'Grand Fir', 'Elev_Max': 7095, 'Elev_Mean': 3427}}",139,"{'NA': {'Survey_Number': 'NA', 'Texture': 'NA', 'Acres': 'NA'}}",{u'LOWER NASON': '4.3 (mi./sq. mi.)'},"{'NA': {'State_status': 'NA', 'FMA_NM': 'NA', 'Federal_status': 'NA'}}","{u'Northern Spotted Owl': {'FMA_NM': 'NATAPOC U1', u'Scientific_name': u'Strix occidentalis', u'Notes': u'SITENO:  434 REFNO:   4442 ELEV: 3100 :', u'State_status': u'Endangered', u'Occurrence_type': u'Biotic detection', 'Acres': '186.43', u'Occurrence_class': u'Unknown', u'Federal_status': u'Threatened', u'Common_name': u'Northern Spotted Owl'}}"
BOUNDARY CREEK,,"<w:r><w:t xml:space=""preserve"">South Puget Sound Region </w:t><w:br/><w:t xml:space=""preserve"">	950 Farman Avenue N </w:t><w:br/><w:t xml:space=""preserve"">	Enumclaw, WA 98022 </w:t><w:br/><w:t xml:space=""preserve"">	(360) 825-1631</w:t></w:r>",10/11/2018,10/25/2022,10/24/2024,True,,True,False,False,"T21-0N R8-0E, T21-0N R9-0E","{u'HOWARD HANSON': {'Acres': 46483.4, 'DNR_Even': 3276.2, 'DNR_Uneven': 214.5, 'DNR_Acres': 26805.7, 'Non_DNR': 381.1}, u'NF GREEN': {'Acres': 18446.0, 'DNR_Even': 1426.9, 'DNR_Uneven': 265.1, 'DNR_Acres': 12372.2, 'Non_DNR': 68.4}}","{u'HOWARD HANSON': {'Elev_Min': 784, 'Acres': 46483, 'Mean_Precip': 78, 'Veg_Zone': u'Western Hemlock', 'Elev_Max': 4758, 'Elev_Mean': 2305}, u'NF GREEN': {'Elev_Min': 1145, 'Acres': 18446, 'Mean_Precip': 88, 'Veg_Zone': u'Pacific Silver Fir', 'Elev_Max': 4487, 'Elev_Mean': 2460}}",130,"SlicableOrderedDict([(41.29, {'Survey_Number': u'6137', 'Texture': 'SANDY LOAM', 'Acres': 41.29}), (41.07, {'Survey_Number': u'3822', 'Texture': 'SANDY LOAM', 'Acres': 41.07}), (20.53, {'Survey_Number': u'4301', 'Texture': 'SANDY LOAM', 'Acres': 20.53}), (15.83, {'Survey_Number': u'6150', 'Texture': 'LOAMY SAND', 'Acres': 15.83}), (15.25, {'Survey_Number': u'6153', 'Texture': 'LOAMY SAND', 'Acres': 15.25})])","{u'HOWARD HANSON': '5.6 (mi./sq. mi.)', u'NF GREEN': '5.5 (mi./sq. mi.)'}","{'NA': {'State_status': 'NA', 'FMA_NM': 'NA', 'Federal_status': 'NA'}}","{'NA': {'State_status': 'NA', 'FMA_NM': 'NA', 'Federal_status': 'NA'}}"
MARINARA,30-094954,"<w:r><w:t xml:space=""preserve"">Northwest Region </w:t><w:br/><w:t xml:space=""preserve"">	919 N Township Street </w:t><w:br/><w:t xml:space=""preserve"">	Sedro Woolley, WA 98284 </w:t><w:br/><w:t xml:space=""preserve"">	(360) 856-3500</w:t></w:r>",10/11/2018,12/13/2017,03/31/2020,True,,True,False,False,T40-0N R6-0E,"{u'BOULDER CREEK': {'Acres': 16754.3, 'DNR_Even': 504.4, 'DNR_Uneven': 239.4, 'DNR_Acres': 4806.7, 'Non_DNR': 400.8}}","{u'BOULDER CREEK': {'Elev_Min': 498, 'Acres': 16754, 'Mean_Precip': 68, 'Veg_Zone': u'Western Hemlock', 'Elev_Max': 5489, 'Elev_Mean': 2029}}",82,"SlicableOrderedDict([(40.82, {'Survey_Number': u'5603', 'Texture': 'V.GRAVELLY LOAM', 'Acres': 40.82}), (28.83, {'Survey_Number': u'0418', 'Texture': 'V.GRAVELLY LOAM', 'Acres': 28.83}), (11.58, {'Survey_Number': u'5602', 'Texture': 'V.GRAVELLY LOAM', 'Acres': 11.58}), (0.0, {'Survey_Number': u'2876', 'Texture': 'V.GRAVELLY SILT LOAM', 'Acres': 0.0})])",{u'BOULDER CREEK': '4.8 (mi./sq. mi.)'},"{u'western jewel-weed': {'FMA_NM': 'MARINARA 2', u'ELCODE': u'PDBAL01070', u'Scientific_name': u'Impatiens noli-tangere', u'State_status': 'Threatened', 'Acres': '1.89', u'Federal_status': u'None', u'Common_name': u'Western Jewel-Weed'}}","{u'Marbled murrelet': {'FMA_NM': 'MARINARA 1', u'Scientific_name': u'Brachyramphus marmoratus', u'Notes': u'BIOTIC DETECTION', u'State_status': u'Endangered', u'Occurrence_type': u'Biotic detection', 'Acres': '10.0', u'Occurrence_class': u'NA', u'Federal_status': u'Threatened', u'Common_name': u'Marbled murrelet'}}"
STRIPED TIE SORTS,30-096547,"<w:r><w:t xml:space=""preserve"">Olympic Region </w:t><w:br/><w:t xml:space=""preserve"">	411 Tillicum Lane </w:t><w:br/><w:t xml:space=""preserve"">	Forks, WA 98331 </w:t><w:br/><w:t xml:space=""preserve"">	(360) 374-2800</w:t></w:r>",10/11/2018,06/13/2018,06/12/2020,True,,True,False,False,T31-0N R8-0W,"{u'SALT CREEK': {'Acres': 70618.9, 'DNR_Even': 1259.2, 'DNR_Uneven': 913.6, 'DNR_Acres': 12497.3, 'Non_DNR': 725.3}}","{u'SALT CREEK': {'Elev_Min': 0, 'Acres': 70619, 'Mean_Precip': 42, 'Veg_Zone': u'Western Hemlock', 'Elev_Max': 2513, 'Elev_Mean': 255}}",93,"SlicableOrderedDict([(111.6, {'Survey_Number': u'4332', 'Texture': 'GRAVELLY LOAM', 'Acres': 111.6}), (88.21, {'Survey_Number': u'8047', 'Texture': 'V.GRAVELLY SANDY LOAM', 'Acres': 88.21}), (37.64, {'Survey_Number': u'1958', 'Texture': 'GRAVELLY SANDY LOAM', 'Acres': 37.64}), (2.31, {'Survey_Number': u'8049', 'Texture': 'V.GRAVELLY SANDY LOAM', 'Acres': 2.31}), (0.3, {'Survey_Number': u'4331', 'Texture': 'GRAVELLY LOAM', 'Acres': 0.3})])",{u'SALT CREEK': '2.1 (mi./sq. mi.)'},"{'NA': {'State_status': 'NA', 'FMA_NM': 'NA', 'Federal_status': 'NA'}}","{u'Marbled murrelet': {'FMA_NM': 'STRIPED TIE SORTS U4', u'Scientific_name': u'Brachyramphus marmoratus', u'Notes': u'Biotic Detection', u'State_status': u'Endangered', u'Occurrence_type': u'Biotic detection', 'Acres': '2.97', u'Occurrence_class': u'NA', u'Federal_status': u'Threatened', u'Common_name': u'Marbled murrelet'}, u""Taylor's Checkerspot"": {'FMA_NM': 'STRIPED TIE SORTS U5', u'Scientific_name': u'Euphydryas editha taylori', u'Notes': u""TAYLOR'S (WHULGE) CHECKERSPOT ADULTS OBSERVED DURING SURVEY IN REMNANT GRASSY BALDS AND ROAD EDGES NEAR ANTENNA COMPLEX ON PEAK SOUTHEAST OF STRIPED PEAK. TOTAL OBERSERVED FOR THAT DAY (4 ADULTS: 1 COLLECTED);"", u'State_status': u'Endangered', u'Occurrence_type': u'Biotic detection', 'Acres': '38.19', u'Occurrence_class': u'Unknown', u'Federal_status': u'Endangered', u'Common_name': u""Taylor's Checkerspot""}}"
UPPER HULL,,"<w:r><w:t xml:space=""preserve"">Pacific Cascade Region </w:t><w:br/><w:t xml:space=""preserve"">	601 Bond Road </w:t><w:br/><w:t xml:space=""preserve"">	PO Box 280 </w:t><w:br/><w:t xml:space=""preserve"">	Castle Rock, WA 98611 </w:t><w:br/><w:t xml:space=""preserve"">	(360) 577-2025</w:t></w:r>",10/11/2018,01/01/2099,01/01/2101,True,,True,False,False,T11-0N R7-0W,"{u'WF GRAYS RIVER': {'Acres': 10408.2, 'DNR_Even': 0.0, 'DNR_Uneven': 0.0, 'DNR_Acres': 1836.0, 'Non_DNR': 842.5}}","{u'WF GRAYS RIVER': {'Elev_Min': 30, 'Acres': 10408, 'Mean_Precip': 110, 'Veg_Zone': u'Western Hemlock', 'Elev_Max': 2850, 'Elev_Mean': 1128}}",131,"SlicableOrderedDict([(58.46, {'Survey_Number': u'4357', 'Texture': 'SILT LOAM', 'Acres': 58.46}), (36.02, {'Survey_Number': u'0665', 'Texture': 'SILT LOAM', 'Acres': 36.02}), (7.0, {'Survey_Number': u'4356', 'Texture': 'SILT LOAM', 'Acres': 7.0})])",{u'WF GRAYS RIVER': '5.2 (mi./sq. mi.)'},"{'NA': {'State_status': 'NA', 'FMA_NM': 'NA', 'Federal_status': 'NA'}}","{u'Marbled murrelet': {'FMA_NM': 'UPPER HULL U3', u'Scientific_name': u'Brachyramphus marmoratus', u'Notes': u'Biotic Detection', u'State_status': u'Endangered', u'Occurrence_type': u'Biotic detection', 'Acres': '39.5', u'Occurrence_class': u'NA', u'Federal_status': u'Threatened', u'Common_name': u'Marbled murrelet'}}"
DOMINION FIT,,"<w:r><w:t xml:space=""preserve"">Northeast Region </w:t><w:br/><w:t xml:space=""preserve"">	225 S Silke Road </w:t><w:br/><w:t xml:space=""preserve"">	Colville, WA 99114 </w:t><w:br/><w:t xml:space=""preserve"">	(509) 684-7474</w:t></w:r>",10/11/2018,03/26/2019,03/25/2021,True,,True,False,False,"T35-0N R41-0E, T36-0N R41-0E, T35-0N R40-0E, T36-0N R42-0E","{u'LAKES': {'Acres': 37534.7, 'DNR_Even': 1131.2, 'DNR_Uneven': 0.0, 'DNR_Acres': 16649.4, 'Non_DNR': 197.0}, u'LOWER LITTLE PEND OREILLE': {'Acres': 66385.3, 'DNR_Even': 701.0, 'DNR_Uneven': 0.0, 'DNR_Acres': 8670.4, 'Non_DNR': 1624.5}}","{u'LAKES': {'Elev_Min': 2908, 'Acres': 37535, 'Mean_Precip': 29, 'Veg_Zone': u'Western Hemlock', 'Elev_Max': 5567, 'Elev_Mean': 3724}, u'LOWER LITTLE PEND OREILLE': {'Elev_Min': 1581, 'Acres': 66385, 'Mean_Precip': 19, 'Veg_Zone': u'Douglas Fir', 'Elev_Max': 5675, 'Elev_Mean': 3016}}",78,"SlicableOrderedDict([(225.46, {'Survey_Number': u'5291', 'Texture': 'STONY SILT LOAM', 'Acres': 225.46}), (211.8, {'Survey_Number': u'4731', 'Texture': 'STONY SANDY LOAM', 'Acres': 211.8}), (162.58, {'Survey_Number': u'0033', 'Texture': 'LOAM', 'Acres': 162.58}), (104.41, {'Survey_Number': u'5293', 'Texture': 'V.BOULDERY LOAM', 'Acres': 104.41}), (53.93, {'Survey_Number': u'5295', 'Texture': 'LOAM', 'Acres': 53.93})])","{u'LAKES': '4.0 (mi./sq. mi.)', u'LOWER LITTLE PEND OREILLE': '3.1 (mi./sq. mi.)'}","{'NA': {'State_status': 'NA', 'FMA_NM': 'NA', 'Federal_status': 'NA'}}","{u'Lynx': {'FMA_NM': 'DOMINION FIT U5', u'Scientific_name': u'Lynx canadensis', u'Notes': u'SAW LYNX TRACKS ON AMAZON CREEK   PHS POINT DATA EOFORM#:      904778', u'State_status': u'Endangered', u'Occurrence_type': u'Biotic detection', 'Acres': '330.2', u'Occurrence_class': u'Unknown', u'Federal_status': u'Threatened', u'Common_name': u'Lynx'}}"
STRUSSEL VDT,,"<w:r><w:t xml:space=""preserve"">Northwest Region </w:t><w:br/><w:t xml:space=""preserve"">	919 N Township Street </w:t><w:br/><w:t xml:space=""preserve"">	Sedro Woolley, WA 98284 </w:t><w:br/><w:t xml:space=""preserve"">	(360) 856-3500</w:t></w:r>",10/11/2018,01/01/2026,01/01/2028,True,,False,True,True,T32-0N R6-0E,"{u'LOWER NF STILLAGUAMISH': {'Acres': 36685.9, 'DNR_Even': 1204.4, 'DNR_Uneven': 407.8, 'DNR_Acres': 15018.1, 'Non_DNR': 694.8}, u'JIM CREEK': {'Acres': 30620.2, 'DNR_Even': 670.4, 'DNR_Uneven': 1168.1, 'DNR_Acres': 9137.6, 'Non_DNR': 692.3}}","{u'LOWER NF STILLAGUAMISH': {'Elev_Min': 39, 'Acres': 36686, 'Mean_Precip': 56, 'Veg_Zone': u'Western Hemlock', 'Elev_Max': 3612, 'Elev_Mean': 847}, u'JIM CREEK': {'Elev_Min': 75, 'Acres': 30620, 'Mean_Precip': 62, 'Veg_Zone': u'Western Hemlock', 'Elev_Max': 4447, 'Elev_Mean': 1347}}",76,"SlicableOrderedDict([(213.29, {'Survey_Number': u'1956', 'Texture': 'GRAVELLY LOAM/SILT LOAM', 'Acres': 213.29}), (98.19, {'Survey_Number': u'1949', 'Texture': 'SILT LOAM', 'Acres': 98.19}), (61.26, {'Survey_Number': u'1955', 'Texture': 'GRAVELLY LOAM/SILT LOAM', 'Acres': 61.26}), (29.15, {'Survey_Number': u'8113', 'Texture': 'GRAVELLY LOAM', 'Acres': 29.15}), (17.14, {'Survey_Number': u'5660', 'Texture': 'GRAVELLY LOAM/SILT LOAM', 'Acres': 17.14})])","{u'LOWER NF STILLAGUAMISH': '3.9 (mi./sq. mi.)', u'JIM CREEK': '4.0 (mi./sq. mi.)'}","{'NA': {'State_status': 'NA', 'FMA_NM': 'NA', 'Federal_status': 'NA'}}","{u'Marbled murrelet': {'FMA_NM': 'STRUSSEL VDT U1E', u'Scientific_name': u'Brachyramphus marmoratus', u'Notes': u'Biotic Detection', u'State_status': u'Endangered', u'Occurrence_type': u'Biotic detection', 'Acres': '77.64', u'Occurrence_class': u'NA', u'Federal_status': u'Threatened', u'Common_name': u'Marbled murrelet'}}"
