WAU,Acres,DNR_Uneven,Sale_name,DNR_Even,DNR_Acres,Non_DNR
COLUMBIA RIVER/ROCK CREEK,40285.0,425.7,SOUTH ROCK VRH VDT,32.7,16779.0,1440.0
DEADMAN CREEK/PEONE CREEK,53672.6,0.0,WALLIS ROAD,0.0,341.0,1922.7
THOMPSON CREEK,29779.6,0.0,WALLIS ROAD,0.0,914.0,3834.2
CHICO CREEK,18286.6,158.8,GREEN SIMON,17.0,2468.3,276.6
GREAT BEND,63530.8,115.2,GREEN SIMON,2717.4,16312.4,1681.2
GREAT BEND,63530.8,115.2,GREEN LAKE,2717.4,16312.4,1681.2
CUMBERLAND,19208.9,0.0,BEARCLAW VDT AND VRH,102.3,3320.7,118.4
HOWARD HANSON,46483.4,516.8,BEARCLAW VDT AND VRH,3415.1,26805.7,381.1
MUD MTN,34149.1,0.0,BEARCLAW VDT AND VRH,14.5,548.5,1996.1
GREENWATER,49586.4,0.0,PUMPKIN,0.0,281.0,0.0
KENNEDY CREEK,23378.2,15.0,PUMPKIN,1168.5,9355.3,113.5
LESTER,32809.1,0.0,PUMPKIN,0.0,2542.9,2.6
MOX CHEHALIS,18654.9,0.0,PUMPKIN,296.3,6003.6,900.5
OLNEY CREEK,19802.1,1013.7,SUMMER BREEZE,1080.8,8929.6,296.8
UPPER WALLACE RIVER,20136.0,1881.9,SUMMER BREEZE,909.0,5650.5,364.4
SKYKOMISH RIVER,34791.0,619.2,DYNO,731.0,3770.5,1133.7
UPPER WALLACE RIVER,20136.0,1881.9,DYNO,909.0,5650.5,364.4
LOWER NF STILLAGUAMISH,36685.9,738.5,HOT SHOT,1146.6,15018.1,871.0
NOOKACHAMPS,46461.1,983.1,HOME REPAIRS,572.6,14613.9,1527.1
LOWER SAUK,30577.9,1284.4,CASKEY WEST VRH VDT,576.5,8430.0,29.0
LAKE CAVANAUGH,29882.0,720.4,DOLLY MADISON,2678.1,17439.9,1059.5
LOWER NF STILLAGUAMISH,36685.9,738.5,DOLLY MADISON,1146.6,15018.1,871.0
DAY CREEK,23756.0,120.7,DAY LAKE VRH AND VDT,59.7,1920.7,1069.1
NOOKACHAMPS,46461.1,983.1,COLD SPRINGS CH,572.6,14613.9,1527.1
NOOKACHAMPS,46461.1,983.1,GOLDEN GOPHER,572.6,14613.9,1527.1
NOOKACHAMPS,46461.1,983.1,NEWMAN VRH VDT,572.6,14613.9,1527.1
LOWER CLEARWATER,39674.2,582.8,SHALE EYE,1804.9,21196.2,433.1
WADDEL CREEK,24321.8,26.3,WADDELL VIEW,2127.9,17703.4,7.6
BLACK RIVER,66500.1,0.0,ALPINE RIDGE,713.2,4965.0,1945.6
WADDEL CREEK,24321.8,26.3,ALPINE RIDGE,2127.9,17703.4,7.6
PORTER CREEK,25451.9,15.3,CANDY MOUNTAIN,3388.3,23951.5,136.9
WADDEL CREEK,24321.8,26.3,CANDY MOUNTAIN,2127.9,17703.4,7.6
KENNEDY CREEK,23378.2,15.0,NORTH ZONE THIN,1168.5,9355.3,113.5
MOX CHEHALIS,18654.9,0.0,NORTH ZONE THIN,296.3,6003.6,900.5
PORTER CREEK,25451.9,15.3,NORTH ZONE THIN,3388.3,23951.5,136.9
VEDDER,21386.2,266.1,EL DORADO,581.8,3645.7,1120.1
CLEARWATER CREEK,13712.7,587.6,WEST CLEARWATER VDT,635.9,6600.3,0.0
SIEBERT MCDONALD,88237.8,634.8,SIEBERT SPLIT SORTS,315.1,9813.3,398.4
SIEBERT MCDONALD,88237.8,634.8,TEXAS PANHANDLE,315.1,9813.3,398.4
CATT,13732.5,596.4,WAY BACK,237.5,6893.5,0.0
WILLAPA HEADWATERS,62849.6,0.0,P AND E 20 SORTS,2594.4,19940.9,2954.6
MILL CREEK,15114.5,0.0,JADE,1663.1,10601.0,37.7
WILLAPA HEADWATERS,62849.6,0.0,JADE,2594.4,19940.9,2954.6
ALDER,36932.6,1526.7,RENDEZVOUS CH,1515.1,14146.9,799.4
GRANDY,36441.5,676.5,RENDEZVOUS CH,59.5,4281.1,806.1
ACME,24266.6,562.4,MATTS BACKYARD,854.5,6267.3,441.4
HUTCHINSON CREEK,14059.9,652.9,MATTS BACKYARD,688.5,6182.2,198.0
SAMISH BAY,27252.3,214.2,DODGE FLATS HARDWOOD,729.6,3976.5,132.3
SAMISH RIVER,79994.1,219.2,DODGE FLATS HARDWOOD,690.7,8932.0,1109.9
SKOOKUM CREEK,23172.3,222.2,MIZZEN,381.6,5629.5,1122.2
ALDER,36932.6,1526.7,COUNTRY BOY,1515.1,14146.9,799.4
NF TOUTLE,41215.5,706.9,COUNTRY BOY,2000.9,11141.9,1826.0
SPIRIT LAKE,52457.2,140.8,COUNTRY BOY,247.7,5147.0,259.4
HOWARD CREEK,39425.0,45.6,EUROPA,501.6,6263.2,857.7
SKOOKUM CREEK,23172.3,222.2,EUROPA,381.6,5629.5,1122.2
FISH LAKE,21820.8,0.0,GIBSON,87.4,5820.1,398.6
LONG ALEC CREEK,11512.4,0.0,ALEC F SALV FIT,0.0,2853.8,428.1
W DEER CREEK,51395.7,0.0,ALEC F SALV FIT,0.0,5089.8,2914.8
CECILE CREEK,28410.0,851.5,DOUGLAS MTN,921.3,20917.7,119.7
SINLAHEKIN CREEK,46356.2,1007.9,DOUGLAS MTN,983.7,37477.9,125.8
LOWER TORODA,58975.9,335.8,BOLSTER,239.3,6976.9,1144.5
MYERS CREEK,69840.0,0.0,BOLSTER,0.0,3171.6,555.7
LOWER TORODA,58975.9,335.8,COOGANS BLUFF FIT,239.3,6976.9,1144.5
WAUCONDA SUMMIT,45849.2,0.0,COOGANS BLUFF FIT,144.7,5923.5,725.8
UPPER CHEHALIS/ROCK CREEK,27245.4,11.6,TARANTULA,2598.1,14420.7,845.0
GARRARD CREEK,20795.9,585.5,BLACK WIDOW SORTS,640.1,5032.2,807.3
UPPER CHEHALIS/ROCK CREEK,27245.4,11.6,BLACK WIDOW SORTS,2598.1,14420.7,845.0
LITTLE WASHOUGAL,30151.7,53.8,WEST HAGEN CREEK,1004.8,6654.2,510.0
WF WASHOUGAL,31827.7,69.4,WEST HAGEN CREEK,501.5,8715.2,982.5
ROCK CREEK,21377.0,45.1,HAVARTI SORTS,1324.1,16240.1,475.2
GIBSON CREEK,12263.8,0.0,SHELTON CREEK VRHVDT,991.3,7587.7,1.1
UPPER CHEHALIS/CEDAR CREEK,26228.5,4.3,SHELTON CREEK VRHVDT,2294.2,24562.0,291.1
PORTER CREEK,25451.9,15.3,OLD IRONSIDES VRHVDT,3388.3,23951.5,136.9
UPPER CHEHALIS/CEDAR CREEK,26228.5,4.3,BRONC,2294.2,24562.0,291.1
COWLITZ RIVER/MILL CREEK,28085.3,30.7,BRIGHTY,659.3,2378.8,1464.0
WINSTON,28885.7,732.5,BRIGHTY,1001.4,8372.6,1631.0
CEDAR CREEK,14617.7,0.0,MAYFIELD THINNING,154.2,946.6,1894.8
COWLITZ RIVER/MILL CREEK,28085.3,30.7,MAYFIELD THINNING,659.3,2378.8,1464.0
SALMON CREEK,41436.0,310.4,MAYFIELD THINNING,1070.8,4364.7,3573.9
WINSTON,28885.7,732.5,MAYFIELD THINNING,1001.4,8372.6,1631.0
BREMER,22657.3,0.0,NASHVILLE THIN VR,511.6,3852.4,1325.4
HARMONY,21658.6,0.0,NASHVILLE THIN VR,75.4,493.9,1070.2
SALT CREEK,70618.9,913.6,KARI MAKWA SORTS,1259.2,12497.3,659.9
PORT ANGELES,66979.8,0.0,DRY BIKE,920.5,5957.1,107.4
SUTHERLAND-ALDWELL,56697.4,84.7,DRY BIKE,761.6,7562.3,277.8
LOWER CLEARWATER,39674.2,582.8,TACOMA SELECT VDT,1804.9,21196.2,433.1
LOWER QUEETS RIVER,48992.2,1648.8,TACOMA SELECT VDT,40.6,17843.9,28.7
DISCOVERY BAY,75263.1,1400.8,WING IT HARDWOOD,725.2,9308.6,1893.1
LITTLE QUIL,27661.6,108.2,WING IT HARDWOOD,218.2,2450.2,989.9
YOUNGS CREEK,26034.4,147.7,SIDEHILL SALMON,207.5,5445.1,763.0
TIGER,40654.4,165.6,KING,412.8,10361.2,255.7
JIM CREEK,30620.2,1306.2,URSA MAJOR,670.4,9137.6,703.2
LACAMAS,60997.1,49.9,CASEY APB,176.8,3581.3,2582.1
SOL DUC VALLEY,45673.0,329.1,RAINEY DELUXE,1129.9,14332.3,432.3
